%YAML 1.1
%TAG !u! tag:unity3d.com,2011:
--- !u!221 &22100000
AnimatorOverrideController:
  m_ObjectHideFlags: 0
  m_CorrespondingSourceObject: {fileID: 0}
  m_PrefabInstance: {fileID: 0}
  m_PrefabAsset: {fileID: 0}
  m_Name: Crab
  m_Controller: {fileID: 9100000, guid: c97db2377d6254b469d62106811d15e6, type: 2}
  m_Clips:
  - m_OriginalClip: {fileID: 7400000, guid: 6aeecf5746f543c4d9245c74b478c821, type: 2}
    m_OverrideClip: {fileID: 7400000, guid: b720a9b9c00b77349848e2a5ecbbbe47, type: 2}
  - m_OriginalClip: {fileID: 7400000, guid: 20e4a1eea3baa304195cfbe523b6d57b, type: 2}
    m_OverrideClip: {fileID: 7400000, guid: 4c56e78e433310445ac0d9fb33f7c999, type: 2}
