%YAML 1.1
%TAG !u! tag:unity3d.com,2011:
--- !u!1045 &1
EditorBuildSettings:
  m_ObjectHideFlags: 0
  serializedVersion: 2
  m_Scenes:
  - enabled: 1
    path: Assets/Scenes/Menu.unity
    guid: 2383271451e37424286fe17fc4bb3d19
  - enabled: 1
    path: Assets/Scenes/Level1.unity
    guid: 8680dc3424e32e44d84342096f584157
  m_configObjects: {}
